CPU info:
Architecture:                       x86_64
CPU op-mode(s):                     32-bit, 64-bit
Address sizes:                      48 bits physical, 48 bits virtual
Byte Order:                         Little Endian
CPU(s):                             24
On-line CPU(s) list:                0-23
Vendor ID:                          AuthenticAMD
Model name:                         AMD Ryzen 9 5900X 12-Core Processor
CPU family:                         25
Model:                              33
Thread(s) per core:                 2
Core(s) per socket:                 12
Socket(s):                          1
Stepping:                           0
Frequency boost:                    enabled
CPU(s) scaling MHz:                 52%
CPU max MHz:                        4950.1948
CPU min MHz:                        2200.0000
BogoMIPS:                           7400.09
Flags:                              fpu vme de pse tsc msr pae mce cx8 apic sep mtrr pge mca cmov pat pse36 clflush mmx fxsr sse sse2 ht syscall nx mmxext fxsr_opt pdpe1gb rdtscp lm constant_tsc rep_good nopl nonstop_tsc cpuid extd_apicid aperfmperf rapl pni pclmulqdq monitor ssse3 fma cx16 sse4_1 sse4_2 movbe popcnt aes xsave avx f16c rdrand lahf_lm cmp_legacy svm extapic cr8_legacy abm sse4a misalignsse 3dnowprefetch osvw ibs skinit wdt tce topoext perfctr_core perfctr_nb bpext perfctr_llc mwaitx cpb cat_l3 cdp_l3 hw_pstate ssbd mba ibrs ibpb stibp vmmcall fsgsbase bmi1 avx2 smep bmi2 erms invpcid cqm rdt_a rdseed adx smap clflushopt clwb sha_ni xsaveopt xsavec xgetbv1 xsaves cqm_llc cqm_occup_llc cqm_mbm_total cqm_mbm_local clzero irperf xsaveerptr rdpru wbnoinvd arat npt lbrv svm_lock nrip_save tsc_scale vmcb_clean flushbyasid decodeassists pausefilter pfthreshold avic v_vmsave_vmload vgif v_spec_ctrl umip pku ospke vaes vpclmulqdq rdpid overflow_recov succor smca fsrm
Virtualization:                     AMD-V
L1d cache:                          384 KiB (12 instances)
L1i cache:                          384 KiB (12 instances)
L2 cache:                           6 MiB (12 instances)
L3 cache:                           64 MiB (2 instances)
NUMA node(s):                       1
NUMA node0 CPU(s):                  0-23
Vulnerability Gather data sampling: Not affected
Vulnerability Itlb multihit:        Not affected
Vulnerability L1tf:                 Not affected
Vulnerability Mds:                  Not affected
Vulnerability Meltdown:             Not affected
Vulnerability Mmio stale data:      Not affected
Vulnerability Retbleed:             Not affected
Vulnerability Spec rstack overflow: Mitigation; safe RET, no microcode
Vulnerability Spec store bypass:    Mitigation; Speculative Store Bypass disabled via prctl
Vulnerability Spectre v1:           Mitigation; usercopy/swapgs barriers and __user pointer sanitization
Vulnerability Spectre v2:           Mitigation; Retpolines, IBPB conditional, IBRS_FW, STIBP always-on, RSB filling, PBRSB-eIBRS Not affected
Vulnerability Srbds:                Not affected
Vulnerability Tsx async abort:      Not affected


Memory:
               total        used        free      shared  buff/cache   available
Mem:        32507368     5519032    17576292      249344    10129652    26988336
Swap:        8388604           0     8388604


Storage (chroot, cache_topdir):
Filesystem      Size  Used Avail Use% Mounted on
/dev/nvme0n1p3  999G  775G  224G  78% /
/dev/nvme0n1p3  999G  775G  224G  78% /
